enablereg/simulation/qsim/enablereg.msim.vcd
$comment
	File created using the following command:
		vcd file enablereg.msim.vcd -direction
$end
$date
	Wed Jan 03 11:20:06 2024
$end
$version
	ModelSim Version 10.5b
$end
$timescale
	1ps
$end

$scope module flopenr_vhd_vec_tst $end
$var wire 1 ! clk $end
$var wire 1 " d [3] $end
$var wire 1 # d [2] $end
$var wire 1 $ d [1] $end
$var wire 1 % d [0] $end
$var wire 1 & en $end
$var wire 1 ' q [3] $end
$var wire 1 ( q [2] $end
$var wire 1 ) q [1] $end
$var wire 1 * q [0] $end
$var wire 1 + reset $end

$scope module i1 $end
$var wire 1 , gnd $end
$var wire 1 - vcc $end
$var wire 1 . unknown $end
$var wire 1 / devoe $end
$var wire 1 0 devclrn $end
$var wire 1 1 devpor $end
$var wire 1 2 ww_devoe $end
$var wire 1 3 ww_devclrn $end
$var wire 1 4 ww_devpor $end
$var wire 1 5 ww_clk $end
$var wire 1 6 ww_reset $end
$var wire 1 7 ww_en $end
$var wire 1 8 ww_d [3] $end
$var wire 1 9 ww_d [2] $end
$var wire 1 : ww_d [1] $end
$var wire 1 ; ww_d [0] $end
$var wire 1 < ww_q [3] $end
$var wire 1 = ww_q [2] $end
$var wire 1 > ww_q [1] $end
$var wire 1 ? ww_q [0] $end
$var wire 1 @ \clk~combout\ $end
$var wire 1 A \reset~combout\ $end
$var wire 1 B \en~combout\ $end
$var wire 1 C \q[0]~reg0_regout\ $end
$var wire 1 D \q[1]~reg0_regout\ $end
$var wire 1 E \q[2]~reg0_regout\ $end
$var wire 1 F \q[3]~reg0_regout\ $end
$var wire 1 G \d~combout\ [3] $end
$var wire 1 H \d~combout\ [2] $end
$var wire 1 I \d~combout\ [1] $end
$var wire 1 J \d~combout\ [0] $end
$upscope $end
$upscope $end
$enddefinitions $end
#0
$dumpvars
0!
1&
1+
0,
1-
x.
1/
10
11
12
13
14
05
16
17
0@
1A
1B
0C
0D
0E
0F
0"
0#
0$
0%
08
09
0:
0;
0<
0=
0>
0?
0G
0H
0I
0J
0'
0(
0)
0*
$end
#60000
1"
1#
19
18
1G
1H
#100000
1!
15
1@
#140000
0"
0#
09
08
0G
0H
#200000
0!
05
0@
#240000
1$
1%
1;
1:
1I
1J
#300000
1!
15
1@
#340000
0$
0%
0+
0;
0:
06
0A
0I
0J
#400000
0!
05
0@
#440000
1%
1#
1;
19
1H
1J
#500000
1!
15
1@
1E
1C
1?
1=
1*
1(
#560000
0%
0#
0;
09
0H
0J
#600000
0!
05
0@
#640000
1"
18
1G
#700000
1!
15
1@
1F
0E
0C
0?
0=
1<
0*
0(
1'
#760000
0"
08
0G
#800000
0!
05
0@
#840000
1"
1$
1:
18
1G
1I
#900000
1!
15
1@
1D
1>
1)
#960000
0"
0$
0:
08
0G
0I
#1000000
0!
05
0@
#1060000
1"
1$
1%
1;
1:
18
1G
1I
1J
#1100000
1!
15
1@
1C
1?
1*
#1140000
0"
0$
0%
0;
0:
08
0G
0I
0J
#1200000
0!
05
0@
#1240000
1$
1%
1#
1;
1:
19
1H
1I
1J
#1300000
1!
15
1@
0F
1E
1=
0<
1(
0'
#1320000
0&
07
0B
#1340000
0$
0%
0#
0;
0:
09
0H
0I
0J
#1400000
0!
05
0@
#1500000
1!
15
1@
#1600000
0!
05
0@
#1700000
1!
15
1@
#1800000
0!
05
0@
#1900000
1!
15
1@
