synchronousreg/simulation/qsim/synchronousreg.msim.vcd
$comment
	File created using the following command:
		vcd file synchronousreg.msim.vcd -direction
$end
$date
	Tue Dec 26 23:35:10 2023
$end
$version
	ModelSim Version 10.5b
$end
$timescale
	1ps
$end

$scope module flopr_vhd_vec_tst $end
$var wire 1 ! clk $end
$var wire 1 " d [3] $end
$var wire 1 # d [2] $end
$var wire 1 $ d [1] $end
$var wire 1 % d [0] $end
$var wire 1 & q [3] $end
$var wire 1 ' q [2] $end
$var wire 1 ( q [1] $end
$var wire 1 ) q [0] $end
$var wire 1 * reset $end

$scope module i1 $end
$var wire 1 + gnd $end
$var wire 1 , vcc $end
$var wire 1 - unknown $end
$var wire 1 . devoe $end
$var wire 1 / devclrn $end
$var wire 1 0 devpor $end
$var wire 1 1 ww_devoe $end
$var wire 1 2 ww_devclrn $end
$var wire 1 3 ww_devpor $end
$var wire 1 4 ww_clk $end
$var wire 1 5 ww_reset $end
$var wire 1 6 ww_d [3] $end
$var wire 1 7 ww_d [2] $end
$var wire 1 8 ww_d [1] $end
$var wire 1 9 ww_d [0] $end
$var wire 1 : ww_q [3] $end
$var wire 1 ; ww_q [2] $end
$var wire 1 < ww_q [1] $end
$var wire 1 = ww_q [0] $end
$var wire 1 > \clk~combout\ $end
$var wire 1 ? \reset~combout\ $end
$var wire 1 @ \q[0]~reg0_regout\ $end
$var wire 1 A \q[1]~reg0_regout\ $end
$var wire 1 B \q[2]~reg0_regout\ $end
$var wire 1 C \q[3]~reg0_regout\ $end
$var wire 1 D \d~combout\ [3] $end
$var wire 1 E \d~combout\ [2] $end
$var wire 1 F \d~combout\ [1] $end
$var wire 1 G \d~combout\ [0] $end
$upscope $end
$upscope $end
$enddefinitions $end
#0
$dumpvars
0!
0*
0+
1,
x-
1.
1/
10
11
12
13
04
05
0>
0?
0@
0A
0B
0C
0"
0#
0$
0%
06
07
08
09
0:
0;
0<
0=
0D
0E
0F
0G
0&
0'
0(
0)
$end
#60000
1"
16
1D
#100000
1!
14
1>
1C
1:
1&
#140000
0"
06
0D
#200000
0!
04
0>
#220000
1"
1$
1%
19
18
16
1D
1F
1G
#300000
1!
14
1>
1A
1@
1=
1<
1)
1(
#340000
0"
0$
0%
09
08
06
0D
0F
0G
#400000
0!
04
0>
#440000
1$
1*
18
15
1?
1F
#500000
1!
14
1>
0C
0A
0@
0=
0<
0:
0)
0(
0&
#540000
0$
08
0F
#600000
0!
04
0>
#620000
1$
1"
18
16
1D
1F
#680000
0*
05
0?
#700000
1!
14
1>
1C
1A
1<
1:
1(
1&
#760000
0$
0"
08
06
0D
0F
#800000
0!
04
0>
#840000
1%
1#
19
17
1E
1G
#900000
1!
14
1>
0C
1B
0A
1@
1=
0<
1;
0:
1)
0(
1'
0&
#960000
0%
0#
09
07
0E
0G
#1000000
0!
04
0>
#1100000
1!
14
1>
0B
0@
0=
0;
0)
0'
#1200000
0!
04
0>
#1300000
1!
14
1>
#1400000
0!
04
0>
#1500000
1!
14
1>
#1600000
0!
04
0>
#1700000
1!
14
1>
#1800000
0!
04
0>
#1900000
1!
14
1>
