sillyfunction/simulation/qsim/sillyfunc.msim.vcd
$comment
	File created using the following command:
		vcd file sillyfunc.msim.vcd -direction
$end
$date
	Thu Dec 21 12:02:52 2023
$end
$version
	ModelSim Version 10.5b
$end
$timescale
	1ps
$end

$scope module sillyfunc_vhd_vec_tst $end
$var wire 1 ! a $end
$var wire 1 " b $end
$var wire 1 # c $end
$var wire 1 $ y $end

$scope module i1 $end
$var wire 1 % gnd $end
$var wire 1 & vcc $end
$var wire 1 ' unknown $end
$var wire 1 ( devoe $end
$var wire 1 ) devclrn $end
$var wire 1 * devpor $end
$var wire 1 + ww_devoe $end
$var wire 1 , ww_devclrn $end
$var wire 1 - ww_devpor $end
$var wire 1 . ww_a $end
$var wire 1 / ww_b $end
$var wire 1 0 ww_c $end
$var wire 1 1 ww_y $end
$var wire 1 2 \a~combout\ $end
$var wire 1 3 \c~combout\ $end
$var wire 1 4 \b~combout\ $end
$var wire 1 5 \y~0_combout\ $end
$upscope $end
$upscope $end
$enddefinitions $end
#0
$dumpvars
0!
0"
0#
1$
0%
1&
x'
1(
1)
1*
1+
1,
1-
0.
0/
00
11
02
03
04
15
$end
#160000
1#
10
13
05
01
0$
#320000
0#
00
03
15
11
1$
#360000
1"
1/
14
05
01
0$
#520000
0"
0/
04
15
11
1$
#560000
1"
1#
1/
10
13
14
05
01
0$
#740000
0"
0#
0/
00
03
04
15
11
1$
#780000
1!
1.
12
#920000
0!
0.
02
#980000
1!
1#
1.
10
13
12
#1140000
0!
0#
0.
00
03
02
#1220000
1!
1"
1.
1/
14
12
05
01
0$
#1380000
0!
0"
0.
0/
04
02
15
11
1$
#1460000
1!
1"
1#
1.
1/
10
13
14
12
05
01
0$
#1720000
0!
0"
0#
0.
0/
00
03
04
02
15
11
1$
