synchronizer/simulation/qsim/synchronizer.msim.vcd
$comment
	File created using the following command:
		vcd file synchronizer.msim.vcd -direction
$end
$date
	Fri Jan 05 11:07:08 2024
$end
$version
	ModelSim Version 10.5b
$end
$timescale
	1ps
$end

$scope module sync_vhd_vec_tst $end
$var wire 1 ! clk $end
$var wire 1 " d $end
$var wire 1 # q $end

$scope module i1 $end
$var wire 1 $ gnd $end
$var wire 1 % vcc $end
$var wire 1 & unknown $end
$var wire 1 ' devoe $end
$var wire 1 ( devclrn $end
$var wire 1 ) devpor $end
$var wire 1 * ww_devoe $end
$var wire 1 + ww_devclrn $end
$var wire 1 , ww_devpor $end
$var wire 1 - ww_clk $end
$var wire 1 . ww_d $end
$var wire 1 / ww_q $end
$var wire 1 0 \clk~combout\ $end
$var wire 1 1 \d~combout\ $end
$var wire 1 2 \n1~regout\ $end
$var wire 1 3 \q~reg0_regout\ $end
$upscope $end
$upscope $end
$enddefinitions $end
#0
$dumpvars
0!
1"
0#
0$
1%
x&
1'
1(
1)
1*
1+
1,
0-
1.
0/
00
11
02
03
$end
#100000
1!
1-
10
12
#180000
0"
0.
01
#200000
0!
0-
00
#300000
1!
1-
10
13
02
1/
1#
#400000
0!
0-
00
#500000
1!
1-
10
03
0/
0#
#600000
0!
0-
00
#620000
1"
1.
11
#700000
1!
1-
10
12
#800000
0!
0-
00
#900000
1!
1-
10
13
1/
1#
#960000
0"
0.
01
#1000000
0!
0-
00
#1100000
1!
1-
10
02
#1200000
0!
0-
00
#1300000
1!
1-
10
03
0/
0#
#1400000
0!
0-
00
#1440000
1"
1.
11
#1500000
1!
1-
10
12
#1560000
0"
0.
01
#1600000
0!
0-
00
#1700000
1!
1-
10
13
02
1/
1#
#1800000
0!
0-
00
#1900000
1!
1-
10
03
0/
0#
