tristatebuffer/simulation/qsim/tristate.msim.vcd
$comment
	File created using the following command:
		vcd file tristate.msim.vcd -direction
$end
$date
	Thu Dec 21 13:46:11 2023
$end
$version
	ModelSim Version 10.5b
$end
$timescale
	1ps
$end

$scope module tristate_vhd_vec_tst $end
$var wire 1 ! a [3] $end
$var wire 1 " a [2] $end
$var wire 1 # a [1] $end
$var wire 1 $ a [0] $end
$var wire 1 % en $end
$var wire 1 & y [3] $end
$var wire 1 ' y [2] $end
$var wire 1 ( y [1] $end
$var wire 1 ) y [0] $end

$scope module i1 $end
$var wire 1 * gnd $end
$var wire 1 + vcc $end
$var wire 1 , unknown $end
$var wire 1 - devoe $end
$var wire 1 . devclrn $end
$var wire 1 / devpor $end
$var wire 1 0 ww_devoe $end
$var wire 1 1 ww_devclrn $end
$var wire 1 2 ww_devpor $end
$var wire 1 3 ww_a [3] $end
$var wire 1 4 ww_a [2] $end
$var wire 1 5 ww_a [1] $end
$var wire 1 6 ww_a [0] $end
$var wire 1 7 ww_en $end
$var wire 1 8 ww_y [3] $end
$var wire 1 9 ww_y [2] $end
$var wire 1 : ww_y [1] $end
$var wire 1 ; ww_y [0] $end
$var wire 1 < \en~combout\ $end
$var wire 1 = \a~combout\ [3] $end
$var wire 1 > \a~combout\ [2] $end
$var wire 1 ? \a~combout\ [1] $end
$var wire 1 @ \a~combout\ [0] $end
$upscope $end
$upscope $end
$enddefinitions $end
#0
$dumpvars
1%
0*
1+
x,
1-
1.
1/
10
11
12
17
1<
0!
0"
0#
0$
03
04
05
06
08
09
0:
0;
0=
0>
0?
0@
0&
0'
0(
0)
$end
#50000
1$
16
1@
1;
1)
#100000
0$
1#
06
15
1?
0@
0;
1:
0)
1(
#150000
1$
16
1@
1;
1)
#200000
0$
0#
1"
06
05
14
1>
0?
0@
0;
0:
19
0)
0(
1'
#250000
1$
16
1@
1;
1)
#300000
0$
1#
06
15
1?
0@
0;
1:
0)
1(
#350000
1$
16
1@
1;
1)
#390000
0%
07
0<
z;
z:
z9
z8
z)
z(
z'
z&
#400000
0$
0#
0"
1!
06
05
04
13
1=
0>
0?
0@
#450000
1$
16
1@
#500000
0$
1#
06
15
1?
0@
#550000
1$
16
1@
#600000
0$
0#
1"
06
05
14
1>
0?
0@
#650000
1$
16
1@
#700000
0$
1#
06
15
1?
0@
#750000
1$
16
1@
#800000
0$
0#
0"
0!
06
05
04
03
0=
0>
0?
0@
#850000
1$
16
1@
#900000
0$
1#
06
15
1?
0@
#950000
1$
16
1@
